…
### Q3: Mean and median number of steps taken each day

Using the dplyr package lets group the steps by date and calculate the mean and median of the number of steps taken each day. For this calculation we can omit the NA values. Also median is calculated taking into account only the steps > 0 as in few days we have more 0 values and median was getting calculated as 0 always.


```r
steps_by_date <- activity_data %>% group_by(date) %>% na.omit %>% summarise(mean_per_day = mean(steps),median_per_day = median(steps[steps>0]))
steps_by_date
```

```
## # A tibble: 53 x 3
##          date mean_per_day median_per_day
##        <date>        <dbl>          <dbl>
##  1 2012-10-02      0.43750           63.0
##  2 2012-10-03     39.41667           61.0
##  3 2012-10-04     42.06944           56.5
##  4 2012-10-05     46.15972           66.0
##  5 2012-10-06     53.54167           67.0
##  6 2012-10-07     38.24653           52.5
##  7 2012-10-09     44.48264           48.0
##  8 2012-10-10     34.37500           56.5
##  9 2012-10-11     35.77778           35.0
## 10 2012-10-12     60.35417           46.0
## # ... with 43 more rows
```
…
